{
    "version": "https://jsonfeed.org/version/1",
    "title": "VPROTECT.CF",
    "description": "",
    "home_page_url": "http://vprotect.cf",
    "feed_url": "http://vprotect.cf/feed.json",
    "user_comment": "",
    "icon": "http://vprotect.cf/media/website/vprotect_logo.png",
    "author": {
        "name": "Jooney Axis"
    },
    "items": [
        {
            "id": "http://vprotect.cf/working-on-a-game.html",
            "url": "http://vprotect.cf/working-on-a-game.html",
            "title": "Working on a game...",
            "summary": "Let's Test this!!! Now!!!",
            "content_html": "Let's Test this!!! Now!!!",
            "image": "http://vprotect.cf/media/posts/1/game_menu.jpg",
            "author": {
                "name": "Jooney Axis"
            },
            "tags": [
            ],
            "date_published": "2020-03-15T19:51:53+08:00",
            "date_modified": "2020-03-15T19:51:53+08:00"
        }
    ]
}
